module gitlab.com/tokend1/erc20-listener-svc

go 1.21

require (
	github.com/alecthomas/kingpin v2.2.6+incompatible
	github.com/fatih/structs v1.1.0
	github.com/go-chi/chi v4.1.2+incompatible
	github.com/rubenv/sql-migrate v1.6.1
	gitlab.com/distributed_lab/ape v1.7.1
	gitlab.com/distributed_lab/kit v1.11.2
	gitlab.com/distributed_lab/logan v3.8.1+incompatible
)

require (
	github.com/Microsoft/go-winio v0.6.1 // indirect
	github.com/StackExchange/wmi v1.2.1 // indirect
	github.com/bits-and-blooms/bitset v1.13.0 // indirect
	github.com/btcsuite/btcd/btcec/v2 v2.3.2 // indirect
	github.com/consensys/bavard v0.1.13 // indirect
	github.com/consensys/gnark-crypto v0.12.1 // indirect
	github.com/crate-crypto/go-kzg-4844 v0.7.0 // indirect
	github.com/deckarep/golang-set/v2 v2.1.0 // indirect
	github.com/decred/dcrd/dcrec/secp256k1/v4 v4.2.0 // indirect
	github.com/ethereum/c-kzg-4844 v0.4.1 // indirect
	github.com/go-ole/go-ole v1.3.0 // indirect
	github.com/google/uuid v1.3.0 // indirect
	github.com/gorilla/websocket v1.4.2 // indirect
	github.com/holiman/uint256 v1.2.4 // indirect
	github.com/mmcloughlin/addchain v0.4.0 // indirect
	github.com/shirou/gopsutil v3.21.4-0.20210419000835-c7a38de76ee5+incompatible // indirect
	github.com/supranational/blst v0.3.11 // indirect
	github.com/tklauser/go-sysconf v0.3.12 // indirect
	github.com/tklauser/numcpus v0.6.1 // indirect
	golang.org/x/crypto v0.19.0 // indirect
	golang.org/x/exp v0.0.0-20240205201215-2c58cdc269a3 // indirect
	golang.org/x/mod v0.14.0 // indirect
	golang.org/x/sync v0.6.0 // indirect
	golang.org/x/tools v0.17.0 // indirect
	rsc.io/tmplfunc v0.0.3 // indirect
)

require (
	github.com/Masterminds/squirrel v1.4.0
	github.com/alecthomas/template v0.0.0-20190718012654-fb15b899a751 // indirect
	github.com/alecthomas/units v0.0.0-20231202071711-9a357b53e9c9 // indirect
	github.com/certifi/gocertifi v0.0.0-20200211180108-c7c1fbc02894 // indirect
	github.com/ethereum/go-ethereum v1.13.11
	github.com/fsnotify/fsnotify v1.6.0 // indirect
	github.com/getsentry/raven-go v0.2.0 // indirect
	github.com/getsentry/sentry-go v0.7.0 // indirect
	github.com/go-gorp/gorp/v3 v3.1.0 // indirect
	github.com/go-ozzo/ozzo-validation/v4 v4.2.1 // indirect
	github.com/google/jsonapi v0.0.0-20200226002910-c8283f632fb7 // indirect
	github.com/hashicorp/hcl v1.0.0 // indirect
	github.com/jmoiron/sqlx v1.2.0 // indirect
	github.com/lann/builder v0.0.0-20180802200727-47ae307949d0 // indirect
	github.com/lann/ps v0.0.0-20150810152359-62de8c46ede0 // indirect
	github.com/lib/pq v1.10.7 // indirect
	github.com/magiconair/properties v1.8.0 // indirect
	github.com/mitchellh/mapstructure v1.4.1 // indirect
	github.com/oklog/ulid v1.3.1 // indirect
	github.com/pelletier/go-toml v1.2.0 // indirect
	github.com/pkg/errors v0.9.1
	github.com/sirupsen/logrus v1.9.0 // indirect
	github.com/spf13/afero v1.1.2 // indirect
	github.com/spf13/cast v1.5.0 // indirect
	github.com/spf13/jwalterweatherman v1.0.0 // indirect
	github.com/spf13/pflag v1.0.5 // indirect
	github.com/spf13/viper v1.3.2 // indirect
	gitlab.com/distributed_lab/figure v2.1.0+incompatible
	gitlab.com/distributed_lab/lorem v0.2.0 // indirect
	gitlab.com/distributed_lab/running v0.0.0-20200706131153-4af0e83eb96c // indirect
	golang.org/x/sys v0.17.0 // indirect
	golang.org/x/text v0.14.0 // indirect
	gopkg.in/yaml.v2 v2.4.0 // indirect
)
